…
# make table of drugs to analyse, with their run parameters
run_params_eucast <- run_params_eucast %>% 
  select(drug_agent, use_mic, mic_S, mic_R, use_disk, disk_S, disk_R) %>% 
  left_join(sites) %>%
  mutate(mic_S=if_else(!is.na(bp_site), NA, mic_S)) %>% # don't specify the breakpoint if there are multiple defined
  mutate(mic_R=if_else(!is.na(bp_site), NA, mic_R)) %>%
  mutate(disk_S=if_else(!is.na(bp_site), NA, disk_S)) %>%
  mutate(disk_R=if_else(!is.na(bp_site), NA, disk_R))

> run_params_eucast
# A tibble: 49 × 8
# Groups:   drug_agent [49]
   drug_agent use_mic mic_S mic_R use_disk disk_S disk_R bp_site                                    
   <ab>       <lgl>   <dbl> <dbl> <lgl>     <dbl>  <dbl> <chr>                                      
 1 AMC        TRUE    NA    NA    TRUE         NA     NA Oral, Uncomplicated urinary tract infection
 2 AMK        TRUE    NA    NA    TRUE         NA     NA NA                                         
 3 AMP        TRUE    NA    NA    TRUE         NA     NA NA                                         
 4 AMX        TRUE    NA    NA    FALSE        NA     NA Intravenous                                
 5 ATM        TRUE    NA    NA    TRUE         NA     NA NA                                         
 6 AZM        TRUE    16    16    FALSE        NA     NA NA                                         
 7 BPR        TRUE     0.25  0.25 FALSE        NA     NA NA                                         
 8 CAZ        TRUE    NA    NA    TRUE         NA     NA NA                                         
 9 CCV        TRUE     0.5   0.5  FALSE        NA     NA NA                                         
10 CFM        TRUE    NA    NA    TRUE         NA     NA NA                                         
# ℹ 39 more rows
# ℹ Use `print(n = ...)` to see more rows
```
…
